module app

go 1.19

require (
	github.com/beanstalkd/go-beanstalk v0.2.0
	github.com/gofiber/fiber/v2 v2.44.0
	github.com/iwanbk/gobeanstalk v0.0.0-20160903043409-dbbb23937c31
	github.com/lib/pq v1.2.0
	github.com/redis/go-redis/v9 v9.0.3
)

require (
	github.com/andybalholm/brotli v1.0.5 // indirect
	github.com/cespare/xxhash/v2 v2.2.0 // indirect
	github.com/dgryski/go-rendezvous v0.0.0-20200823014737-9f7001d12a5f // indirect
	github.com/google/uuid v1.3.0 // indirect
	github.com/klauspost/compress v1.16.3 // indirect
	github.com/mattn/go-colorable v0.1.13 // indirect
	github.com/mattn/go-isatty v0.0.18 // indirect
	github.com/mattn/go-runewidth v0.0.14 // indirect
	github.com/philhofer/fwd v1.1.2 // indirect
	github.com/rivo/uniseg v0.2.0 // indirect
	github.com/savsgio/dictpool v0.0.0-20221023140959-7bf2e61cea94 // indirect
	github.com/savsgio/gotils v0.0.0-20230208104028-c358bd845dee // indirect
	github.com/tinylib/msgp v1.1.8 // indirect
	github.com/valyala/bytebufferpool v1.0.0 // indirect
	github.com/valyala/fasthttp v1.45.0 // indirect
	github.com/valyala/tcplisten v1.0.0 // indirect
	golang.org/x/sys v0.7.0 // indirect
)
